53e943128c033ec21ea4fe1b8a3da8a62487cd3ebbfb82eede
4263ef8b02f17e2f2690a7a281aa5b1b3f8472232a5e031f68
8e5c01a1a065d19aab45e2c96157605444652b8a037fc5efc7
e20a00843d42c786ebf03363ec0657f162743450b153c83cf0
8209bffc73619045ea8934b0014966f93ce38de4205fb7be43
e48b889319a463f78713665971f47065bdd2840b0f3a0de0ee
23b820723b7c6d726ad7c98ffb545878587077073d944e26ca
7799370c4d36250bce9d3d333fc6ec0d46b3f193d350210b65
096262b1ebc547fbd329edb7095d2e3c18d94afb3e1cb2ed19
4195475bc65123009f199d7e6cfe58e1650797c1f55bee5557
93df1229b23159b7e0b83428c0a3a73fa2363dd99c3259ee09
be689298871481a2b382a751f26edda4624a045c759cd6a135
a27c4537e88ce5ee4d8ea5b60361229e80549a9925bce457e4
f44dc19ffeb2dfb4b4f182216e4c23cae7b2f29b0a0c536eff
48eb6501f1355839ee4cd8db8215e69dc6c189fd88096db9ed
b5bbdcf63a21e4bc91058b4082d08d2242012991138633bb50
c5bf0950bbfa734d8e1d60be1a8962974002bcc4d765457c47
d20bb2acc942927eea3479d176d3d2e56ad37be756e56852ca
8b07a33de5332e1e99158e8f9976bc4d319c1067a01ee48e08
1fa0fc26514a1a0eb8c4fe7cf639194445f1d00f1ea6b96364
a85fa69e29eafdc68ea54e54bf92475db190c17faa001997e5
f4b410adc1ca6676f775cce8f7877a3dacd4fd026d22954095
e2751b6b2b83f285a196723d54b527f9544f2415f11926cf12
c9f535dbd75e5b2317874e54387427e731d5878fed12055b4b
6e3ba5230b9cb7c69825926f0d26561736d5ee457aa09583eb
980de22f8f815a522ea7713a5778f2bae9c6e76d327b3b418d
68b6c40ec962e49b3de70cfa8aa9435d557b28a9a4dc518d40
afb7a5ca3617cd537c4b86632b4913c62001ef4554cf4c13fa
5bb3e15526430704c53d9c255b6f6c8e06954389b597b0d9d2
37bfc7b2e9ff5fb25af3ec3c4791a53b7f5c2b02daf0b23b6d
dfbef9d79df9354b858368e2c3b990f8d1cccbad3efd45be36
d8e8eb898976084b5c3c6dc39009bde104865c0b6c30c0daed
9c470892c3a16472a6e29865a496542bd998137559957958bc
c062dc00427f4f9e4adc79e43dcb06a623e6cd304cab83becb
682361429d91f9387681015ba290556bf3f9fb1a3dcc855288
07c7024721619ab7e4f3891c76db4cba11b6017f842108e4b3
474edd1edc8cf1249b4f75cfec9aa68965ca51ee7c0944423c
e09abc6e70cc3fbfd25233ff039903e982eb37c43d04926b2c
429e912c23544551a5a506a5752559f25a4197f1501053fc40
08cdcb1d2e120cf32b60c3fa07f7fc49e88ef22e946e8f269e
